ApplicationMgr    SUCCESS
====================================================================================================================================
====================================================================================================================================
ApplicationMgr       INFO Application Manager Configured successfully
IODataManager       ERROR Referring to existing dataset mdf:root://eoslhcb.cern.ch//eos/lhcb/wg/SciFi/Monitoring/test_files/Run_0000251217_20221027-121010-887_SCEB15.mdf by its physical name.
IODataManager       ERROR You may not be able to navigate back to the input file -- processing continues
ApplicationMgr       INFO Application Manager Initialized successfully
ApplicationMgr       INFO Application Manager Started successfully
EventSelector     SUCCESS Reading Event record 1. Record number within stream 1: 1
DecodeFT             INFO Conditions DB is compatible with FT bank version 7 and 8.
FTClusterMonitor     INFO isolated bunches:  56
FTClusterMonitor     INFO eventTime: 1666865409.14532
FTClusterMonitor  SUCCESS Filling Histograms... Please be patient!
EventSelector     SUCCESS Reading Event record 11. Record number within stream 1: 11
EventSelector     SUCCESS Reading Event record 21. Record number within stream 1: 21
EventSelector     SUCCESS Reading Event record 31. Record number within stream 1: 31
EventSelector     SUCCESS Reading Event record 41. Record number within stream 1: 41
EventSelector     SUCCESS Reading Event record 51. Record number within stream 1: 51
EventSelector     SUCCESS Reading Event record 61. Record number within stream 1: 61
EventSelector     SUCCESS Reading Event record 71. Record number within stream 1: 71
EventSelector     SUCCESS Reading Event record 81. Record number within stream 1: 81
EventSelector     SUCCESS Reading Event record 91. Record number within stream 1: 91
EventSelector     SUCCESS Reading Event record 101. Record number within stream 1: 101
EventSelector     SUCCESS Reading Event record 111. Record number within stream 1: 111
EventSelector     SUCCESS Reading Event record 121. Record number within stream 1: 121
EventSelector     SUCCESS Reading Event record 131. Record number within stream 1: 131
EventSelector     SUCCESS Reading Event record 141. Record number within stream 1: 141
EventSelector     SUCCESS Reading Event record 151. Record number within stream 1: 151
EventSelector     SUCCESS Reading Event record 161. Record number within stream 1: 161
EventSelector     SUCCESS Reading Event record 171. Record number within stream 1: 171
EventSelector     SUCCESS Reading Event record 181. Record number within stream 1: 181
EventSelector     SUCCESS Reading Event record 191. Record number within stream 1: 191
EventSelector     SUCCESS Reading Event record 201. Record number within stream 1: 201
EventSelector     SUCCESS Reading Event record 211. Record number within stream 1: 211
EventSelector     SUCCESS Reading Event record 221. Record number within stream 1: 221
EventSelector     SUCCESS Reading Event record 231. Record number within stream 1: 231
EventSelector     SUCCESS Reading Event record 241. Record number within stream 1: 241
EventSelector     SUCCESS Reading Event record 251. Record number within stream 1: 251
EventSelector     SUCCESS Reading Event record 261. Record number within stream 1: 261
EventSelector     SUCCESS Reading Event record 271. Record number within stream 1: 271
EventSelector     SUCCESS Reading Event record 281. Record number within stream 1: 281
EventSelector     SUCCESS Reading Event record 291. Record number within stream 1: 291
EventSelector     SUCCESS Reading Event record 301. Record number within stream 1: 301
EventSelector     SUCCESS Reading Event record 311. Record number within stream 1: 311
EventSelector     SUCCESS Reading Event record 321. Record number within stream 1: 321
EventSelector     SUCCESS Reading Event record 331. Record number within stream 1: 331
EventSelector     SUCCESS Reading Event record 341. Record number within stream 1: 341
EventSelector     SUCCESS Reading Event record 351. Record number within stream 1: 351
EventSelector     SUCCESS Reading Event record 361. Record number within stream 1: 361
EventSelector     SUCCESS Reading Event record 371. Record number within stream 1: 371
EventSelector     SUCCESS Reading Event record 381. Record number within stream 1: 381
EventSelector     SUCCESS Reading Event record 391. Record number within stream 1: 391
EventSelector     SUCCESS Reading Event record 401. Record number within stream 1: 401
EventSelector     SUCCESS Reading Event record 411. Record number within stream 1: 411
EventSelector     SUCCESS Reading Event record 421. Record number within stream 1: 421
EventSelector     SUCCESS Reading Event record 431. Record number within stream 1: 431
EventSelector     SUCCESS Reading Event record 441. Record number within stream 1: 441
EventSelector     SUCCESS Reading Event record 451. Record number within stream 1: 451
EventSelector     SUCCESS Reading Event record 461. Record number within stream 1: 461
EventSelector     SUCCESS Reading Event record 471. Record number within stream 1: 471
EventSelector     SUCCESS Reading Event record 481. Record number within stream 1: 481
EventSelector     SUCCESS Reading Event record 491. Record number within stream 1: 491
EventSelector     SUCCESS Reading Event record 501. Record number within stream 1: 501
EventSelector     SUCCESS Reading Event record 511. Record number within stream 1: 511
EventSelector     SUCCESS Reading Event record 521. Record number within stream 1: 521
EventSelector     SUCCESS Reading Event record 531. Record number within stream 1: 531
EventSelector     SUCCESS Reading Event record 541. Record number within stream 1: 541
EventSelector     SUCCESS Reading Event record 551. Record number within stream 1: 551
EventSelector     SUCCESS Reading Event record 561. Record number within stream 1: 561
EventSelector     SUCCESS Reading Event record 571. Record number within stream 1: 571
EventSelector     SUCCESS Reading Event record 581. Record number within stream 1: 581
EventSelector     SUCCESS Reading Event record 591. Record number within stream 1: 591
EventSelector     SUCCESS Reading Event record 601. Record number within stream 1: 601
EventSelector     SUCCESS Reading Event record 611. Record number within stream 1: 611
EventSelector     SUCCESS Reading Event record 621. Record number within stream 1: 621
EventSelector     SUCCESS Reading Event record 631. Record number within stream 1: 631
EventSelector     SUCCESS Reading Event record 641. Record number within stream 1: 641
EventSelector     SUCCESS Reading Event record 651. Record number within stream 1: 651
EventSelector     SUCCESS Reading Event record 661. Record number within stream 1: 661
EventSelector     SUCCESS Reading Event record 671. Record number within stream 1: 671
EventSelector     SUCCESS Reading Event record 681. Record number within stream 1: 681
EventSelector     SUCCESS Reading Event record 691. Record number within stream 1: 691
EventSelector     SUCCESS Reading Event record 701. Record number within stream 1: 701
EventSelector     SUCCESS Reading Event record 711. Record number within stream 1: 711
EventSelector     SUCCESS Reading Event record 721. Record number within stream 1: 721
EventSelector     SUCCESS Reading Event record 731. Record number within stream 1: 731
EventSelector     SUCCESS Reading Event record 741. Record number within stream 1: 741
EventSelector     SUCCESS Reading Event record 751. Record number within stream 1: 751
EventSelector     SUCCESS Reading Event record 761. Record number within stream 1: 761
EventSelector     SUCCESS Reading Event record 771. Record number within stream 1: 771
EventSelector     SUCCESS Reading Event record 781. Record number within stream 1: 781
EventSelector     SUCCESS Reading Event record 791. Record number within stream 1: 791
EventSelector     SUCCESS Reading Event record 801. Record number within stream 1: 801
EventSelector     SUCCESS Reading Event record 811. Record number within stream 1: 811
EventSelector     SUCCESS Reading Event record 821. Record number within stream 1: 821
EventSelector     SUCCESS Reading Event record 831. Record number within stream 1: 831
EventSelector     SUCCESS Reading Event record 841. Record number within stream 1: 841
EventSelector     SUCCESS Reading Event record 851. Record number within stream 1: 851
EventSelector     SUCCESS Reading Event record 861. Record number within stream 1: 861
EventSelector     SUCCESS Reading Event record 871. Record number within stream 1: 871
EventSelector     SUCCESS Reading Event record 881. Record number within stream 1: 881
EventSelector     SUCCESS Reading Event record 891. Record number within stream 1: 891
EventSelector     SUCCESS Reading Event record 901. Record number within stream 1: 901
EventSelector     SUCCESS Reading Event record 911. Record number within stream 1: 911
EventSelector     SUCCESS Reading Event record 921. Record number within stream 1: 921
EventSelector     SUCCESS Reading Event record 931. Record number within stream 1: 931
EventSelector     SUCCESS Reading Event record 941. Record number within stream 1: 941
EventSelector     SUCCESS Reading Event record 951. Record number within stream 1: 951
EventSelector     SUCCESS Reading Event record 961. Record number within stream 1: 961
EventSelector     SUCCESS Reading Event record 971. Record number within stream 1: 971
EventSelector     SUCCESS Reading Event record 981. Record number within stream 1: 981
EventSelector     SUCCESS Reading Event record 991. Record number within stream 1: 991
ApplicationMgr       INFO Application Manager Stopped successfully
ApplicationMgr       INFO Application Manager Finalized successfully
ApplicationMgr       INFO Application Manager Terminated successfully
FTClusterMonitor     INFO Number of counters : 1
 |    Counter                                      |     #     |    sum     | mean/eff^* | rms/err^*  |     min     |     max     |
 | "number of calls"                               |      1000 |
